…
> 
> ## HH
> hh_prop <- lapply(c("drinkwatersource_new", "garbagedisposal_new", "toilet_5plusyrs_new"), summaryFunc)
> hh_prop_df <- (bind_rows(hh_prop)
+ 	%>% mutate(services = gsub("drink|\\_new", "", services)
+ 		, services = ifelse(grepl("toilet\\_", services), "toilettype", services)
+ 		, df = "hh"
+ 	)
+ )
> 
> 
> ### Combine wash and HH
> prop_df <- bind_rows(wash_prop_df, hh_prop_df)
> prop_df
# A tibble: 84 x 5
   intvwyear  prop services    overall df   
       <dbl> <dbl> <chr>         <dbl> <chr>
 1         1 0.949 watersource   0.914 wash 
 2         2 0.968 watersource   0.914 wash 
 3         3 0.984 watersource   0.914 wash 
 4         4 0.981 watersource   0.914 wash 
 5         5 0.981 watersource   0.914 wash 
 6         6 0.912 watersource   0.914 wash 
 7         7 0.941 watersource   0.914 wash 
 8         8 0.963 watersource   0.914 wash 
 9         9 0.879 watersource   0.914 wash 
10        10 0.861 watersource   0.914 wash 
# … with 74 more rows
…
